{
    "level_1": {
        "title": "Nível 1",
        "subtitle": "Desmistificando investimentos",
        "identification": "1",
        "levelNumber": 1,
        "lesson_count": 2
    },
    "level_2": {
        "title": "Nível 2",
        "subtitle": "A sua reserva de emergência",
        "identification": "2",
        "levelNumber": 2,
        "lesson_count": 3
    },
    "level_3": {
        "title": "Nível 3",
        "subtitle": "Investimentos para o futuro",
        "identification": "3",
        "levelNumber": 3,
        "lesson_count": 2
    },
    "level_4": {
        "title": "Nível 4",
        "subtitle": "Desvendando o Tesouro Direto",
        "identification": "4",
        "levelNumber": 4,
        "lesson_count": 3
    }
}
